com\plusplus\service\DataService.class
com\plusplus\service\UserService.class
com\plusplus\service\InvestmentService.class
com\plusplus\service\RecomendationService.class
com\plusplus\service\SurveyService.class
com\plusplus\service\TransactionService.class
