com\plusplus\repository\UMRRepository.class
com\plusplus\repository\UserRepository.class
com\plusplus\repository\ObligationRepository.class
com\plusplus\repository\SurveyRepository.class
com\plusplus\repository\TransactionRepository.class
com\plusplus\repository\ReksadanaRepository.class
